%YAML 1.1
%TAG !u! tag:unity3d.com,2011:
--- !u!1 &192549338740052452
GameObject:
  m_ObjectHideFlags: 0
  m_CorrespondingSourceObject: {fileID: 0}
  m_PrefabInstance: {fileID: 0}
  m_PrefabAsset: {fileID: 0}
  serializedVersion: 6
  m_Component:
  - component: {fileID: 192549338740052454}
  - component: {fileID: 192549338740052455}
  - component: {fileID: 192549338740052456}
  - component: {fileID: 192549338740052457}
  m_Layer: 0
  m_Name: Haron
  m_TagString: Untagged
  m_Icon: {fileID: 0}
  m_NavMeshLayer: 0
  m_StaticEditorFlags: 0
  m_IsActive: 1
--- !u!4 &192549338740052454
Transform:
  m_ObjectHideFlags: 0
  m_CorrespondingSourceObject: {fileID: 0}
  m_PrefabInstance: {fileID: 0}
  m_PrefabAsset: {fileID: 0}
  m_GameObject: {fileID: 192549338740052452}
  m_LocalRotation: {x: 0, y: 0, z: 0, w: 1}
  m_LocalPosition: {x: 0, y: 0, z: 0}
  m_LocalScale: {x: 1, y: 1, z: 1}
  m_Children: []
  m_Father: {fileID: 0}
  m_RootOrder: 0
  m_LocalEulerAnglesHint: {x: 0, y: 0, z: 0}
--- !u!114 &192549338740052455
MonoBehaviour:
  m_ObjectHideFlags: 0
  m_CorrespondingSourceObject: {fileID: 0}
  m_PrefabInstance: {fileID: 0}
  m_PrefabAsset: {fileID: 0}
  m_GameObject: {fileID: 192549338740052452}
  m_Enabled: 1
  m_EditorHideFlags: 0
  m_Script: {fileID: 11500000, guid: 2bca471c587ff9747a99ab71a1b96011, type: 3}
  m_Name: 
  m_EditorClassIdentifier: 
  loginId: server-evans
  rtcTransport: {fileID: 192549338740052456}
  address: server-haron
--- !u!114 &192549338740052456
MonoBehaviour:
  m_ObjectHideFlags: 0
  m_CorrespondingSourceObject: {fileID: 0}
  m_PrefabInstance: {fileID: 0}
  m_PrefabAsset: {fileID: 0}
  m_GameObject: {fileID: 192549338740052452}
  m_Enabled: 1
  m_EditorHideFlags: 0
  m_Script: {fileID: 11500000, guid: 25ee6c1ef0ff0654ea102bbc970ddb2c, type: 3}
  m_Name: 
  m_EditorClassIdentifier: 
  activeSignaler: {fileID: 192549338740052457}
  stunUrls:
  - stun:stun.stunprotocol.org
  dataChannels: 0000000001000000
--- !u!114 &192549338740052457
MonoBehaviour:
  m_ObjectHideFlags: 0
  m_CorrespondingSourceObject: {fileID: 0}
  m_PrefabInstance: {fileID: 0}
  m_PrefabAsset: {fileID: 0}
  m_GameObject: {fileID: 192549338740052452}
  m_Enabled: 1
  m_EditorHideFlags: 0
  m_Script: {fileID: 11500000, guid: 5bce7d62e1857c849b2834cdad6021fd, type: 3}
  m_Name: 
  m_EditorClassIdentifier: 
  headerUserAgent: mirror-webrtc
  serverURL: wss://mirror-webrtc.glitch.me
  connected: 0
